Análise Gráfica no R
…
dados <- read_csv("data/dados.csv")       # Função para importar os dados

Rows: 96 Columns: 9
-- Column specification --------------------------------------------------------
Delimiter: ","
chr (2): trat, gen
dbl (7): id, blocos, sev1, sev2, sev3, area, areat

i Use `spec()` to retrieve the full column specification for this data.
i Specify the column types or set `show_col_types = FALSE` to quiet this message.

dados

# A tibble: 96 x 9
   trat               id gen       blocos  sev1  sev2  sev3  area areat
   <chr>           <dbl> <chr>      <dbl> <dbl> <dbl> <dbl> <dbl> <dbl>
 1 Testemunha 6165     1 Predileta      1  0.97   1.9    12  58.7  14.7
 2 Testemunha 6165     2 Predileta      2  1.9    1.9     8  48.0  13.0
 3 Testemunha 6165     3 Predileta      3  3.3    3.3    12  76.6  17.2
 4 Testemunha 6165     4 Predileta      4  1.9    3.3    12  71.8  16.5
 5 Testemunha 6165     5 Inca           1  1.9   12      31 199.   29.9
 6 Testemunha 6165     6 Inca           2  1.9   12      31 199.   29.9
 7 Testemunha 6165     7 Inca           3  1.9    8      22 140.   24.4
 8 Testemunha 6165     8 Inca           4  0.97  12      31 196.   29.6
 9 UFV 02              9 Predileta      1  0.97   8       8  87.4  18.6
10 UFV 02             10 Predileta      2  1.9   12      12 133.   23.7
# ... with 86 more rows
…
