Manipulação de dados no R
…
Selecionando Variáveis com select()

A função select() permite selecionar as variáveis
desejadas de um conjunto de dados. É possível selecionar variáveis pelo
nome ou por meio de funções helpers, como starts_with(),
que seleciona todas as variáveis que começam com um prefixo
específico.

dados %>%
  select(sev1, sev2)

# A tibble: 96 x 2
    sev1  sev2
   <dbl> <dbl>
 1  0.97   1.9
 2  1.9    1.9
 3  3.3    3.3
 4  1.9    3.3
 5  1.9   12  
 6  1.9   12  
 7  1.9    8  
 8  0.97  12  
 9  0.97   8  
10  1.9   12  
# i 86 more rows

Selecionar as colunas 3 (gen) e 8 (area)

Método 1 - indicando o número da coluna no conjunto de dados

dados %>%
  select(gen, area)

# A tibble: 96 x 2
   gen        area
   <chr>     <dbl>
 1 Predileta  58.7
 2 Predileta  48.0
 3 Predileta  76.6
 4 Predileta  71.8
 5 Inca      199. 
 6 Inca      199. 
 7 Inca      140. 
 8 Inca      196. 
 9 Predileta  87.4
10 Predileta 133. 
# i 86 more rows

Método 2 - indicando o nome da coluna no conjunto de dados

dados %>%
  select(3, 8)

# A tibble: 96 x 2
   gen        area
   <chr>     <dbl>
 1 Predileta  58.7
 2 Predileta  48.0
 3 Predileta  76.6
 4 Predileta  71.8
 5 Inca      199. 
 6 Inca      199. 
 7 Inca      140. 
 8 Inca      196. 
 9 Predileta  87.4
10 Predileta 133. 
# i 86 more rows

Excluir a variável 2 (id)

dados %>%
  select(-id)

# A tibble: 96 x 8
   trat            gen       blocos  sev1  sev2  sev3  area areat
   <chr>           <chr>      <dbl> <dbl> <dbl> <dbl> <dbl> <dbl>
 1 Testemunha 6165 Predileta      1  0.97   1.9    12  58.7  14.7
 2 Testemunha 6165 Predileta      2  1.9    1.9     8  48.0  13.0
 3 Testemunha 6165 Predileta      3  3.3    3.3    12  76.6  17.2
 4 Testemunha 6165 Predileta      4  1.9    3.3    12  71.8  16.5
 5 Testemunha 6165 Inca           1  1.9   12      31 199.   29.9
 6 Testemunha 6165 Inca           2  1.9   12      31 199.   29.9
 7 Testemunha 6165 Inca           3  1.9    8      22 140.   24.4
 8 Testemunha 6165 Inca           4  0.97  12      31 196.   29.6
 9 UFV 02          Predileta      1  0.97   8       8  87.4  18.6
10 UFV 02          Predileta      2  1.9   12      12 133.   23.7
# i 86 more rows

Selecionar um intervalo de variáveis

dados %>%
  select(c(1:4, 8))

# A tibble: 96 x 5
   trat               id gen       blocos  area
   <chr>           <dbl> <chr>      <dbl> <dbl>
 1 Testemunha 6165     1 Predileta      1  58.7
 2 Testemunha 6165     2 Predileta      2  48.0
 3 Testemunha 6165     3 Predileta      3  76.6
 4 Testemunha 6165     4 Predileta      4  71.8
 5 Testemunha 6165     5 Inca           1 199. 
 6 Testemunha 6165     6 Inca           2 199. 
 7 Testemunha 6165     7 Inca           3 140. 
 8 Testemunha 6165     8 Inca           4 196. 
 9 UFV 02              9 Predileta      1  87.4
10 UFV 02             10 Predileta      2 133. 
# i 86 more rows

Selecionar colunas pela classe Método 1 - Usando
where

dados %>%
  select(where(is.numeric))

# A tibble: 96 x 7
      id blocos  sev1  sev2  sev3  area areat
   <dbl>  <dbl> <dbl> <dbl> <dbl> <dbl> <dbl>
 1     1      1  0.97   1.9    12  58.7  14.7
 2     2      2  1.9    1.9     8  48.0  13.0
 3     3      3  3.3    3.3    12  76.6  17.2
 4     4      4  1.9    3.3    12  71.8  16.5
 5     5      1  1.9   12      31 199.   29.9
 6     6      2  1.9   12      31 199.   29.9
 7     7      3  1.9    8      22 140.   24.4
 8     8      4  0.97  12      31 196.   29.6
 9     9      1  0.97   8       8  87.4  18.6
10    10      2  1.9   12      12 133.   23.7
# i 86 more rows

Método 1 - Usando select_if

dados %>%
  select_if(is.numeric)

# A tibble: 96 x 7
      id blocos  sev1  sev2  sev3  area areat
   <dbl>  <dbl> <dbl> <dbl> <dbl> <dbl> <dbl>
 1     1      1  0.97   1.9    12  58.7  14.7
 2     2      2  1.9    1.9     8  48.0  13.0
 3     3      3  3.3    3.3    12  76.6  17.2
 4     4      4  1.9    3.3    12  71.8  16.5
 5     5      1  1.9   12      31 199.   29.9
 6     6      2  1.9   12      31 199.   29.9
 7     7      3  1.9    8      22 140.   24.4
 8     8      4  0.97  12      31 196.   29.6
 9     9      1  0.97   8       8  87.4  18.6
10    10      2  1.9   12      12 133.   23.7
# i 86 more rows

Escolha as colunas que possuem um determinado texto

dados %>%
  select(contains("area"))

# A tibble: 96 x 2
    area areat
   <dbl> <dbl>
 1  58.7  14.7
 2  48.0  13.0
 3  76.6  17.2
 4  71.8  16.5
 5 199.   29.9
 6 199.   29.9
 7 140.   24.4
 8 196.   29.6
 9  87.4  18.6
10 133.   23.7
# i 86 more rows

Filtrando Observações com filter()

A função filter() permite filtrar as observações do
nosso conjunto de dados. Podemos utilizar os operadores lógicos (>,
<, ==, !=, etc.) para definir a condição de filtragem.

dados %>%
  filter(gen == "Predileta" & area >= 100)

# A tibble: 41 x 9
   trat            id gen       blocos  sev1  sev2  sev3  area areat
   <chr>        <dbl> <chr>      <dbl> <dbl> <dbl> <dbl> <dbl> <dbl>
 1 "UFV 02"        10 Predileta      2  1.9     12    12  133.  23.7
 2 "UFV 04"        17 Predileta      1  0.97    12    12  129.  23.4
 3 "UFV 04"        18 Predileta      2  1.9     12    12  133.  23.7
 4 "UFV 04"        19 Predileta      3  1.9     22    31  269.  35.5
 5 "UFV 04"        20 Predileta      4  1.9     12    12  133.  23.7
 6 "Guaxup\xe9"    25 Predileta      1  0.97    12    12  129.  23.4
 7 "Guaxup\xe9"    26 Predileta      2  0.97    12    22  164.  26.8
 8 "Guaxup\xe9"    27 Predileta      3  0.97    12    12  129.  23.4
 9 "Guaxup\xe9"    28 Predileta      4  1.9     22    22  238.  33.1
10 "UFV 72"        33 Predileta      1  1.9     22    31  269.  35.5
# i 31 more rows
…
between(): Filtrar valores entre dois limites
específicos.

near(): filtrar valores próximos a um valor específico,
com uma tolerância definida.

Adicionando Variáveis com mutate()

A função mutate() permite criar novas variáveis a partir
de variáveis já existentes em um conjunto de dados.

dados %>%
  mutate(sev_total = sev1 + sev2)

# A tibble: 96 x 10
   trat               id gen      blocos  sev1  sev2  sev3  area areat sev_total
   <chr>           <dbl> <chr>     <dbl> <dbl> <dbl> <dbl> <dbl> <dbl>     <dbl>
 1 Testemunha 6165     1 Predile~      1  0.97   1.9    12  58.7  14.7      2.87
 2 Testemunha 6165     2 Predile~      2  1.9    1.9     8  48.0  13.0      3.8 
 3 Testemunha 6165     3 Predile~      3  3.3    3.3    12  76.6  17.2      6.6 
 4 Testemunha 6165     4 Predile~      4  1.9    3.3    12  71.8  16.5      5.2 
 5 Testemunha 6165     5 Inca          1  1.9   12      31 199.   29.9     13.9 
 6 Testemunha 6165     6 Inca          2  1.9   12      31 199.   29.9     13.9 
 7 Testemunha 6165     7 Inca          3  1.9    8      22 140.   24.4      9.9 
 8 Testemunha 6165     8 Inca          4  0.97  12      31 196.   29.6     13.0 
 9 UFV 02              9 Predile~      1  0.97   8       8  87.4  18.6      8.97
10 UFV 02             10 Predile~      2  1.9   12      12 133.   23.7     13.9 
# i 86 more rows
…
Estatísticas da área por tratamento por genótipo

dados %>%
  group_by(trat, gen) %>%
  summarise(
    area_mean = mean(area),
    area_range = max(area) - min(area),
    area_desv = sd(area)
  ) 

`summarise()` has grouped output by 'trat'. You can override using the
`.groups` argument.

# A tibble: 24 x 5
# Groups:   trat [12]
   trat             gen       area_mean area_range area_desv
   <fct>            <fct>         <dbl>      <dbl>     <dbl>
 1 "Guaxup\xe9"     Inca           127.       38.3      17.1
 2 "Guaxup\xe9"     Predileta      165.      108.       51.0
 3 "Lagoa da prata" Inca           187.       59.5      28.2
 4 "Lagoa da prata" Predileta      223.       98        43.6
 5 "M 354"          Inca           423.      210        88.4
 6 "M 354"          Predileta      499.      226.      108. 
 7 "M 373"          Inca           321.       65.1      31.2
 8 "M 373"          Predileta      338.      133        54.4
 9 "PROG 122"       Inca           182.       62.8      30.3
10 "PROG 122"       Predileta      191.       49.3      23.6
# i 14 more rows
…
Ordenando Observações com arrange()

A função arrange() permite ordenar as observações de um
conjunto de dados por uma ou mais variáveis.

Ordenando pela menor área (crescente)

dados %>%
  arrange(area)

# A tibble: 96 x 9
   trat               id gen       blocos  sev1  sev2  sev3  area areat
   <fct>           <dbl> <fct>      <dbl> <dbl> <dbl> <dbl> <dbl> <dbl>
 1 Testemunha 6165     2 Predileta      2  1.9    1.9     8  48.0  13.0
 2 UFV 02             13 Inca           1  0.97   3.3     8  54.5  14.0
 3 UFV 02             15 Inca           3  0.97   3.3     8  54.5  14.0
 4 UFV 02             16 Inca           4  1.9    3.3     8  57.8  14.5
 5 Testemunha 6165     1 Predileta      1  0.97   1.9    12  58.7  14.7
 6 Testemunha 6165     4 Predileta      4  1.9    3.3    12  71.8  16.5
 7 Testemunha 6165     3 Predileta      3  3.3    3.3    12  76.6  17.2
 8 UFV 02              9 Predileta      1  0.97   8       8  87.4  18.6
 9 UFV 02             11 Predileta      3  0.97   8       8  87.4  18.6
10 UFV 02             12 Predileta      4  0.97   8       8  87.4  18.6
# i 86 more rows

Ordenando pela maior área (descendente)

dados %>%
  arrange(desc(area))

# A tibble: 96 x 9
   trat        id gen       blocos  sev1  sev2  sev3  area areat
   <fct>    <dbl> <fct>      <dbl> <dbl> <dbl> <dbl> <dbl> <dbl>
 1 M 354       92 Predileta      4   8      51    51  564.  53.6
 2 M 354       89 Predileta      1   3.3    51    51  547.  52.7
 3 M 354       90 Predileta      2   3.3    51    51  547.  52.7
 4 M 354       96 Inca           4   3.3    51    51  547.  52.7
 5 PROG 125    41 Predileta      1   3.3    31    51  407.  44.7
 6 PROG 125    44 Predileta      4   3.3    31    51  407.  44.7
 7 M 373       75 Predileta      3   3.3    31    51  407.  44.7
 8 RIL 18      83 Predileta      3   3.3    31    51  407.  44.7
 9 RIL 18      84 Predileta      4   3.3    31    51  407.  44.7
10 RIL 18      85 Inca           1   3.3    31    51  407.  44.7
# i 86 more rows
…
# A tibble: 5 x 9
  trat               id gen       blocos  sev1  sev2  sev3  area areat
  <fct>           <dbl> <fct>      <dbl> <dbl> <dbl> <dbl> <dbl> <dbl>
1 Testemunha 6165     1 Predileta      1  0.97   1.9    12  58.7  14.7
2 Testemunha 6165     2 Predileta      2  1.9    1.9     8  48.0  13.0
3 Testemunha 6165     3 Predileta      3  3.3    3.3    12  76.6  17.2
4 Testemunha 6165     4 Predileta      4  1.9    3.3    12  71.8  16.5
5 Testemunha 6165     5 Inca           1  1.9   12      31 199.   29.9

Selecioanr todas observações exceto a número 1 até a 5

dados %>%
  slice(-(1:5))

# A tibble: 91 x 9
   trat               id gen       blocos  sev1  sev2  sev3  area areat
   <fct>           <dbl> <fct>      <dbl> <dbl> <dbl> <dbl> <dbl> <dbl>
 1 Testemunha 6165     6 Inca           2  1.9   12      31 199.   29.9
 2 Testemunha 6165     7 Inca           3  1.9    8      22 140.   24.4
 3 Testemunha 6165     8 Inca           4  0.97  12      31 196.   29.6
 4 UFV 02              9 Predileta      1  0.97   8       8  87.4  18.6
 5 UFV 02             10 Predileta      2  1.9   12      12 133.   23.7
 6 UFV 02             11 Predileta      3  0.97   8       8  87.4  18.6
 7 UFV 02             12 Predileta      4  0.97   8       8  87.4  18.6
 8 UFV 02             13 Inca           1  0.97   3.3     8  54.5  14.0
 9 UFV 02             14 Inca           2  1.9    8      12 105.   20.7
10 UFV 02             15 Inca           3  0.97   3.3     8  54.5  14.0
# i 81 more rows
…
Renomeando Variáveis com rename()

A funçãorename() permite renomear variáveis em nosso
conjunto de dados.

dados %>%
  rename(tratamento = trat , genotipo = gen)

# A tibble: 96 x 9
   tratamento         id genotipo  blocos  sev1  sev2  sev3  area areat
   <fct>           <dbl> <fct>      <dbl> <dbl> <dbl> <dbl> <dbl> <dbl>
 1 Testemunha 6165     1 Predileta      1  0.97   1.9    12  58.7  14.7
 2 Testemunha 6165     2 Predileta      2  1.9    1.9     8  48.0  13.0
 3 Testemunha 6165     3 Predileta      3  3.3    3.3    12  76.6  17.2
 4 Testemunha 6165     4 Predileta      4  1.9    3.3    12  71.8  16.5
 5 Testemunha 6165     5 Inca           1  1.9   12      31 199.   29.9
 6 Testemunha 6165     6 Inca           2  1.9   12      31 199.   29.9
 7 Testemunha 6165     7 Inca           3  1.9    8      22 140.   24.4
 8 Testemunha 6165     8 Inca           4  0.97  12      31 196.   29.6
 9 UFV 02              9 Predileta      1  0.97   8       8  87.4  18.6
10 UFV 02             10 Predileta      2  1.9   12      12 133.   23.7
# i 86 more rows
…
inner_join()

Retorna todas as linhas de x onde existem valores correspondentes em
y e todas as colunas de x e y.

inner <- inner_join(dados1, dados2)

Joining with `by = join_by(trat, id, gen, blocos, sev1, sev2, sev3, area,
areat)`

inner

# A tibble: 31 x 11
   trat        id gen     blocos  sev1  sev2  sev3  area areat soma_sev mult_sev
   <fct>    <dbl> <fct>    <dbl> <dbl> <dbl> <dbl> <dbl> <dbl>    <dbl>    <dbl>
 1 UFV 04      23 Inca         3   8      12    31  220.  31.7     51      2976 
 2 UFV 72      35 Predil~      3   3.3    31    31  337.  40.3     65.3    3171.
 3 UFV 72      36 Predil~      4   3.3    22    31  274.  35.8     56.3    2251.
 4 UFV 72      39 Inca         3   3.3    22    31  274.  35.8     56.3    2251.
 5 PROG 125    41 Predil~      1   3.3    31    51  407.  44.7     85.3    5217.
 6 PROG 125    42 Predil~      2   8      31    31  354.  41.3     70      7688 
 7 PROG 125    43 Predil~      3   8      22    51  360.  41.8     81      8976 
 8 PROG 125    44 Predil~      4   3.3    31    51  407.  44.7     85.3    5217.
 9 PROG 125    45 Inca         1   8      12    31  220.  31.7     51      2976 
10 PROG 122    49 Predil~      1   8      12    31  220.  31.7     51      2976 
# i 21 more rows
…
Retorna todas as linhas de x para as quais existem valores
correspondente em y, mantendo apenas as x. O semi_join
difere do inner_join porque o inner_join irá
retornar uma linha de x para cada valor correspondente de y, enquanto um
semi_join nunca irá duplicar valores x.

semi <- semi_join(dados1, dados2)

Joining with `by = join_by(trat, id, gen, blocos, sev1, sev2, sev3, area,
areat)`

semi

# A tibble: 31 x 10
   trat        id gen       blocos  sev1  sev2  sev3  area areat soma_sev
   <fct>    <dbl> <fct>      <dbl> <dbl> <dbl> <dbl> <dbl> <dbl>    <dbl>
 1 UFV 04      23 Inca           3   8      12    31  220.  31.7     51  
 2 UFV 72      35 Predileta      3   3.3    31    31  337.  40.3     65.3
 3 UFV 72      36 Predileta      4   3.3    22    31  274.  35.8     56.3
 4 UFV 72      39 Inca           3   3.3    22    31  274.  35.8     56.3
 5 PROG 125    41 Predileta      1   3.3    31    51  407.  44.7     85.3
 6 PROG 125    42 Predileta      2   8      31    31  354.  41.3     70  
 7 PROG 125    43 Predileta      3   8      22    51  360.  41.8     81  
 8 PROG 125    44 Predileta      4   3.3    31    51  407.  44.7     85.3
 9 PROG 125    45 Inca           1   8      12    31  220.  31.7     51  
10 PROG 122    49 Predileta      1   8      12    31  220.  31.7     51  
# i 21 more rows

full_join()

Retorna todas as linhas e todas as colunas tanto de x quanto de y.
Returna NA no caso de não haver valor correspondente.

full <- full_join(dados1, dados2)

Joining with `by = join_by(trat, id, gen, blocos, sev1, sev2, sev3, area,
areat)`

full

# A tibble: 40 x 11
   trat        id gen     blocos  sev1  sev2  sev3  area areat soma_sev mult_sev
   <fct>    <dbl> <fct>    <dbl> <dbl> <dbl> <dbl> <dbl> <dbl>    <dbl>    <dbl>
 1 UFV 04      19 Predil~      3   1.9    22    31  269.  35.5     54.9      NA 
 2 UFV 04      23 Inca         3   8      12    31  220.  31.7     51      2976 
 3 UFV 72      33 Predil~      1   1.9    22    31  269.  35.5     54.9      NA 
 4 UFV 72      35 Predil~      3   3.3    31    31  337.  40.3     65.3    3171.
 5 UFV 72      36 Predil~      4   3.3    22    31  274.  35.8     56.3    2251.
 6 UFV 72      39 Inca         3   3.3    22    31  274.  35.8     56.3    2251.
 7 PROG 125    41 Predil~      1   3.3    31    51  407.  44.7     85.3    5217.
 8 PROG 125    42 Predil~      2   8      31    31  354.  41.3     70      7688 
 9 PROG 125    43 Predil~      3   8      22    51  360.  41.8     81      8976 
10 PROG 125    44 Predil~      4   3.3    31    51  407.  44.7     85.3    5217.
# i 30 more rows

left_join()

Retorna todas as linhas de x, e todas as colunas tanto de x quanto de
y. Se houver múltiplas correspondências entre x e y, todas as
combinações de correspondências serão retornadas.

left <- left_join(dados1, dados2)

Joining with `by = join_by(trat, id, gen, blocos, sev1, sev2, sev3, area,
areat)`

left

# A tibble: 40 x 11
   trat        id gen     blocos  sev1  sev2  sev3  area areat soma_sev mult_sev
   <fct>    <dbl> <fct>    <dbl> <dbl> <dbl> <dbl> <dbl> <dbl>    <dbl>    <dbl>
 1 UFV 04      19 Predil~      3   1.9    22    31  269.  35.5     54.9      NA 
 2 UFV 04      23 Inca         3   8      12    31  220.  31.7     51      2976 
 3 UFV 72      33 Predil~      1   1.9    22    31  269.  35.5     54.9      NA 
 4 UFV 72      35 Predil~      3   3.3    31    31  337.  40.3     65.3    3171.
 5 UFV 72      36 Predil~      4   3.3    22    31  274.  35.8     56.3    2251.
 6 UFV 72      39 Inca         3   3.3    22    31  274.  35.8     56.3    2251.
 7 PROG 125    41 Predil~      1   3.3    31    51  407.  44.7     85.3    5217.
 8 PROG 125    42 Predil~      2   8      31    31  354.  41.3     70      7688 
 9 PROG 125    43 Predil~      3   8      22    51  360.  41.8     81      8976 
10 PROG 125    44 Predil~      4   3.3    31    51  407.  44.7     85.3    5217.
# i 30 more rows

right_join()

Retorna todas as linhas de y, e todas as colunas tanto de x quanto de
y. Se houver múltiplas correspondências entre x e y, todas as
combinações de correspondências serão retornadas.

right <- right_join(dados1, dados2)

Joining with `by = join_by(trat, id, gen, blocos, sev1, sev2, sev3, area,
areat)`

right

# A tibble: 31 x 11
   trat        id gen     blocos  sev1  sev2  sev3  area areat soma_sev mult_sev
   <fct>    <dbl> <fct>    <dbl> <dbl> <dbl> <dbl> <dbl> <dbl>    <dbl>    <dbl>
 1 UFV 04      23 Inca         3   8      12    31  220.  31.7     51      2976 
 2 UFV 72      35 Predil~      3   3.3    31    31  337.  40.3     65.3    3171.
 3 UFV 72      36 Predil~      4   3.3    22    31  274.  35.8     56.3    2251.
 4 UFV 72      39 Inca         3   3.3    22    31  274.  35.8     56.3    2251.
 5 PROG 125    41 Predil~      1   3.3    31    51  407.  44.7     85.3    5217.
 6 PROG 125    42 Predil~      2   8      31    31  354.  41.3     70      7688 
 7 PROG 125    43 Predil~      3   8      22    51  360.  41.8     81      8976 
 8 PROG 125    44 Predil~      4   3.3    31    51  407.  44.7     85.3    5217.
 9 PROG 125    45 Inca         1   8      12    31  220.  31.7     51      2976 
10 PROG 122    49 Predil~      1   8      12    31  220.  31.7     51      2976 
# i 21 more rows
…
